[
 {
  "__tuple__": true, 
  "items": [
   9999, 
   "\u521d\u59cb\u955c\u5934", 
   32768
  ]
 }, 
 {
  "__tuple__": true, 
  "items": [
   1, 
   "\u5173 \u7fbd", 
   1
  ]
 }, 
 {
  "__tuple__": true, 
  "items": [
   2, 
   "\u5218 \u5907", 
   1
  ]
 }, 
 {
  "__tuple__": true, 
  "items": [
   3, 
   "\u9a6c \u8d85", 
   1
  ]
 }, 
 {
  "__tuple__": true, 
  "items": [
   8, 
   "\u9a6c \u8d85", 
   1
  ]
 }, 
 {
  "__tuple__": true, 
  "items": [
   14, 
   "\u8d75 \u4e91", 
   1
  ]
 }, 
 {
  "__tuple__": true, 
  "items": [
   15, 
   "\u8bf8\u845b\u4eae", 
   1
  ]
 }, 
 {
  "__tuple__": true, 
  "items": [
   16, 
   "\u66f9 \u64cd", 
   1
  ]
 }, 
 {
  "__tuple__": true, 
  "items": [
   17, 
   "\u590f\u4faf\u60c7", 
   1
  ]
 }, 
 {
  "__tuple__": true, 
  "items": [
   18, 
   "\u8bb8 \u891a", 
   1
  ]
 }, 
 {
  "__tuple__": true, 
  "items": [
   19, 
   "\u66f9 \u4ec1", 
   1
  ]
 }
]