{
 "f": [
  {
   "__tuple__": true, 
   "items": [
    "", 
    0, 
    2147483647, 
    "code_explorer_custom_root_folder_name"
   ]
  }, 
  {
   "__tuple__": true, 
   "items": [
    "/2147483647", 
    0, 
    "KxcfjxC3Ee+cKeIK9o6KVf", 
    "\u82f1\u96c4"
   ]
  }, 
  {
   "__tuple__": true, 
   "items": [
    "/2147483647/KxcfjxC3Ee+cKeIK9o6KVf", 
    0, 
    "KxcfkBC3Ee+ho+IK9o6KVV", 
    "\u5f20\u98de"
   ]
  }, 
  {
   "__tuple__": true, 
   "items": [
    "/2147483647/KxcfjxC3Ee+cKeIK9o6KVf/KxcfkBC3Ee+ho+IK9o6KVV", 
    0, 
    "KxcfkRC3Ee+Z+eIK9o6KVS", 
    "\u4eba\u7269\u8bed\u97f3"
   ]
  }, 
  {
   "__tuple__": true, 
   "items": [
    "/2147483647/KxcfjxC3Ee+cKeIK9o6KVf/KxcfkBC3Ee+ho+IK9o6KVV", 
    1, 
    "KxeUwBC3Ee+B1eIK9o6KVe", 
    "\u6280\u80fd\u8bed\u97f3"
   ]
  }, 
  {
   "__tuple__": true, 
   "items": [
    "/2147483647/KxcfjxC3Ee+cKeIK9o6KVf", 
    1, 
    "KxgJ8BC3Ee+0q+IK9o6KVS", 
    "\u5218\u5907"
   ]
  }, 
  {
   "__tuple__": true, 
   "items": [
    "/2147483647/KxcfjxC3Ee+cKeIK9o6KVf/KxgJ8BC3Ee+0q+IK9o6KVS", 
    0, 
    "KxgJ8RC3Ee+iLOIK9o6KVT", 
    "\u6280\u80fd\u8bed\u97f3"
   ]
  }, 
  {
   "__tuple__": true, 
   "items": [
    "/2147483647/KxcfjxC3Ee+cKeIK9o6KVf/KxgJ8BC3Ee+0q+IK9o6KVS", 
    1, 
    "Kxh-IRC3Ee+sHOIK9o6KVc", 
    "\u4eba\u7269\u8bed\u97f3"
   ]
  }, 
  {
   "__tuple__": true, 
   "items": [
    "/2147483647/KxcfjxC3Ee+cKeIK9o6KVf", 
    2, 
    "KxkbYRC3Ee+kA+IK9o6KVb", 
    "\u5173\u7fbd"
   ]
  }, 
  {
   "__tuple__": true, 
   "items": [
    "/2147483647/KxcfjxC3Ee+cKeIK9o6KVf/KxkbYRC3Ee+kA+IK9o6KVb", 
    0, 
    "KxkbYhC3Ee+CA+IK9o6KVQ", 
    "\u6280\u80fd\u8bed\u97f3"
   ]
  }, 
  {
   "__tuple__": true, 
   "items": [
    "/2147483647/KxcfjxC3Ee+cKeIK9o6KVf/KxkbYRC3Ee+kA+IK9o6KVb", 
    1, 
    "Kxm3nhC3Ee+xN+IK9o6KVf", 
    "\u4eba\u7269\u8bed\u97f3"
   ]
  }, 
  {
   "__tuple__": true, 
   "items": [
    "/2147483647/KxcfjxC3Ee+cKeIK9o6KVf", 
    3, 
    "KxoszxC3Ee+tDOIK9o6KVZ", 
    "\u9a6c\u8d85"
   ]
  }, 
  {
   "__tuple__": true, 
   "items": [
    "/2147483647/KxcfjxC3Ee+cKeIK9o6KVf/KxoszxC3Ee+tDOIK9o6KVZ", 
    0, 
    "Kxos0BC3Ee+zVeIK9o6KVT", 
    "\u6280\u80fd\u8bed\u97f3"
   ]
  }, 
  {
   "__tuple__": true, 
   "items": [
    "/2147483647/KxcfjxC3Ee+cKeIK9o6KVf/KxoszxC3Ee+tDOIK9o6KVZ", 
    1, 
    "Kxp68BC3Ee+z3OIK9o6KVS", 
    "\u4eba\u7269\u8bed\u97f3"
   ]
  }, 
  {
   "__tuple__": true, 
   "items": [
    "/2147483647/KxcfjxC3Ee+cKeIK9o6KVf", 
    4, 
    "KxrwIRC3Ee+qTOIK9o6KVa", 
    "\u8d75\u4e91"
   ]
  }, 
  {
   "__tuple__": true, 
   "items": [
    "/2147483647/KxcfjxC3Ee+cKeIK9o6KVf/KxrwIRC3Ee+qTOIK9o6KVa", 
    0, 
    "KxrwIhC3Ee+08OIK9o6KVd", 
    "\u6280\u80fd\u8bed\u97f3"
   ]
  }, 
  {
   "__tuple__": true, 
   "items": [
    "/2147483647/KxcfjxC3Ee+cKeIK9o6KVf/KxrwIRC3Ee+qTOIK9o6KVa", 
    1, 
    "KxuzcBC3Ee+XLOIK9o6KVR", 
    "\u4eba\u7269\u8bed\u97f3"
   ]
  }, 
  {
   "__tuple__": true, 
   "items": [
    "/2147483647/KxcfjxC3Ee+cKeIK9o6KVf", 
    5, 
    "Kxx2wBC3Ee+GCOIK9o6KVe", 
    "\u5415\u5e03"
   ]
  }, 
  {
   "__tuple__": true, 
   "items": [
    "/2147483647/KxcfjxC3Ee+cKeIK9o6KVf/Kxx2wBC3Ee+GCOIK9o6KVe", 
    0, 
    "Kxx2wRC3Ee+S8uIK9o6KVY", 
    "\u6280\u80fd\u8bed\u97f3"
   ]
  }, 
  {
   "__tuple__": true, 
   "items": [
    "/2147483647/KxcfjxC3Ee+cKeIK9o6KVf/Kxx2wBC3Ee+GCOIK9o6KVe", 
    1, 
    "Kx2vQBC3Ee+SV+IK9o6KVf", 
    "\u4eba\u7269\u8bed\u97f3"
   ]
  }, 
  {
   "__tuple__": true, 
   "items": [
    "/2147483647/KxcfjxC3Ee+cKeIK9o6KVf", 
    6, 
    "Kx5LgBC3Ee+Tw+IK9o6KVX", 
    "\u9ec4\u5fe0"
   ]
  }, 
  {
   "__tuple__": true, 
   "items": [
    "/2147483647/KxcfjxC3Ee+cKeIK9o6KVf/Kx5LgBC3Ee+Tw+IK9o6KVX", 
    0, 
    "Kx5LgRC3Ee+qQOIK9o6KVW", 
    "\u6280\u80fd\u8bed\u97f3"
   ]
  }, 
  {
   "__tuple__": true, 
   "items": [
    "/2147483647/KxcfjxC3Ee+cKeIK9o6KVf/Kx5LgBC3Ee+Tw+IK9o6KVX", 
    1, 
    "Kx7AsBC3Ee+8ouIK9o6KVQ", 
    "\u4eba\u7269\u8bed\u97f3"
   ]
  }, 
  {
   "__tuple__": true, 
   "items": [
    "/2147483647/KxcfjxC3Ee+cKeIK9o6KVf", 
    7, 
    "Kx+EABC3Ee+93+IK9o6KVU", 
    "\u8bf8\u845b\u4eae"
   ]
  }, 
  {
   "__tuple__": true, 
   "items": [
    "/2147483647/KxcfjxC3Ee+cKeIK9o6KVf/Kx+EABC3Ee+93+IK9o6KVU", 
    0, 
    "Kx+EARC3Ee+B9uIK9o6KVW", 
    "\u6280\u80fd\u8bed\u97f3"
   ]
  }, 
  {
   "__tuple__": true, 
   "items": [
    "/2147483647/KxcfjxC3Ee+cKeIK9o6KVf/Kx+EABC3Ee+93+IK9o6KVU", 
    1, 
    "Kx-SHhC3Ee+Go+IK9o6KVd", 
    "\u4eba\u7269\u8bed\u97f3"
   ]
  }, 
  {
   "__tuple__": true, 
   "items": [
    "/2147483647/KxcfjxC3Ee+cKeIK9o6KVf", 
    8, 
    "KyBHTxC3Ee+cr+IK9o6KVS", 
    "\u66f9\u64cd"
   ]
  }, 
  {
   "__tuple__": true, 
   "items": [
    "/2147483647/KxcfjxC3Ee+cKeIK9o6KVf/KyBHTxC3Ee+cr+IK9o6KVS", 
    0, 
    "KyBHUBC3Ee+k2+IK9o6KVc", 
    "\u6280\u80fd\u8bed\u97f3"
   ]
  }, 
  {
   "__tuple__": true, 
   "items": [
    "/2147483647/KxcfjxC3Ee+cKeIK9o6KVf/KyBHTxC3Ee+cr+IK9o6KVS", 
    1, 
    "KyCVcBC3Ee+gcOIK9o6KVV", 
    "\u4eba\u7269\u8bed\u97f3"
   ]
  }, 
  {
   "__tuple__": true, 
   "items": [
    "/2147483647/KxcfjxC3Ee+cKeIK9o6KVf", 
    9, 
    "KyEKoRC3Ee+KPOIK9o6KVf", 
    "\u590f\u4faf\u60c7"
   ]
  }, 
  {
   "__tuple__": true, 
   "items": [
    "/2147483647/KxcfjxC3Ee+cKeIK9o6KVf/KyEKoRC3Ee+KPOIK9o6KVf", 
    0, 
    "KyEKohC3Ee+AVOIK9o6KVf", 
    "\u6280\u80fd\u8bed\u97f3"
   ]
  }, 
  {
   "__tuple__": true, 
   "items": [
    "/2147483647/KxcfjxC3Ee+cKeIK9o6KVf/KyEKoRC3Ee+KPOIK9o6KVf", 
    1, 
    "KyF-0RC3Ee+Lf+IK9o6KVQ", 
    "\u4eba\u7269\u8bed\u97f3"
   ]
  }, 
  {
   "__tuple__": true, 
   "items": [
    "/2147483647/KxcfjxC3Ee+cKeIK9o6KVf", 
    10, 
    "KyH1ABC3Ee+eEuIK9o6KVe", 
    "\u8bb8\u891a"
   ]
  }, 
  {
   "__tuple__": true, 
   "items": [
    "/2147483647/KxcfjxC3Ee+cKeIK9o6KVf/KyH1ABC3Ee+eEuIK9o6KVe", 
    0, 
    "KyH1ARC3Ee+mEuIK9o6KVb", 
    "\u6280\u80fd\u8bed\u97f3"
   ]
  }, 
  {
   "__tuple__": true, 
   "items": [
    "/2147483647/KxcfjxC3Ee+cKeIK9o6KVf/KyH1ABC3Ee+eEuIK9o6KVe", 
    1, 
    "KyJDHhC3Ee+hFOIK9o6KVS", 
    "\u4eba\u7269\u8bed\u97f3"
   ]
  }, 
  {
   "__tuple__": true, 
   "items": [
    "/2147483647/KxcfjxC3Ee+cKeIK9o6KVf", 
    11, 
    "KyK4TxC3Ee+HaeIK9o6KVe", 
    "\u66f9\u4ec1"
   ]
  }, 
  {
   "__tuple__": true, 
   "items": [
    "/2147483647/KxcfjxC3Ee+cKeIK9o6KVf/KyK4TxC3Ee+HaeIK9o6KVe", 
    0, 
    "KyK4UBC3Ee+RreIK9o6KVe", 
    "\u6280\u80fd\u8bed\u97f3"
   ]
  }, 
  {
   "__tuple__": true, 
   "items": [
    "/2147483647/KxcfjxC3Ee+cKeIK9o6KVf/KyK4TxC3Ee+HaeIK9o6KVe", 
    1, 
    "KyLfXhC3Ee+8IOIK9o6KVT", 
    "\u4eba\u7269\u8bed\u97f3"
   ]
  }, 
  {
   "__tuple__": true, 
   "items": [
    "/2147483647/KxcfjxC3Ee+cKeIK9o6KVf", 
    12, 
    "KyNUjxC3Ee+XCeIK9o6KVU", 
    "\u90ed\u5609"
   ]
  }, 
  {
   "__tuple__": true, 
   "items": [
    "/2147483647/KxcfjxC3Ee+cKeIK9o6KVf/KyNUjxC3Ee+XCeIK9o6KVU", 
    0, 
    "KyNUkBC3Ee+cWOIK9o6KVZ", 
    "\u6280\u80fd\u8bed\u97f3"
   ]
  }, 
  {
   "__tuple__": true, 
   "items": [
    "/2147483647/KxcfjxC3Ee+cKeIK9o6KVf/KyNUjxC3Ee+XCeIK9o6KVU", 
    1, 
    "KyN7oRC3Ee+jouIK9o6KVe", 
    "\u4eba\u7269\u8bed\u97f3"
   ]
  }, 
  {
   "__tuple__": true, 
   "items": [
    "/2147483647/KxcfjxC3Ee+cKeIK9o6KVf", 
    13, 
    "KyPw0RC3Ee+HZeIK9o6KVR", 
    "\u8d3e\u8be9"
   ]
  }, 
  {
   "__tuple__": true, 
   "items": [
    "/2147483647/KxcfjxC3Ee+cKeIK9o6KVf/KyPw0RC3Ee+HZeIK9o6KVR", 
    0, 
    "KyPw0hC3Ee+PkeIK9o6KVS", 
    "\u4eba\u7269\u8bed\u97f3"
   ]
  }, 
  {
   "__tuple__": true, 
   "items": [
    "/2147483647/KxcfjxC3Ee+cKeIK9o6KVf", 
    14, 
    "KyRmABC3Ee+DL+IK9o6KVR", 
    "\u8521\u6587\u59ec"
   ]
  }, 
  {
   "__tuple__": true, 
   "items": [
    "/2147483647/KxcfjxC3Ee+cKeIK9o6KVf/KyRmABC3Ee+DL+IK9o6KVR", 
    0, 
    "KyRmARC3Ee+r3OIK9o6KVX", 
    "\u6280\u80fd\u8bed\u97f3"
   ]
  }, 
  {
   "__tuple__": true, 
   "items": [
    "/2147483647/KxcfjxC3Ee+cKeIK9o6KVf/KyRmABC3Ee+DL+IK9o6KVR", 
    1, 
    "KyTbLhC3Ee+zEeIK9o6KVU", 
    "\u4eba\u7269\u8bed\u97f3"
   ]
  }, 
  {
   "__tuple__": true, 
   "items": [
    "/2147483647/KxcfjxC3Ee+cKeIK9o6KVf", 
    15, 
    "KyVQXhC3Ee+SzOIK9o6KVR", 
    "\u6cd5\u6b63"
   ]
  }, 
  {
   "__tuple__": true, 
   "items": [
    "/2147483647/KxcfjxC3Ee+cKeIK9o6KVf/KyVQXhC3Ee+SzOIK9o6KVR", 
    0, 
    "KyVQXxC3Ee+DS+IK9o6KVW", 
    "\u6280\u80fd\u8bed\u97f3"
   ]
  }, 
  {
   "__tuple__": true, 
   "items": [
    "/2147483647/KxcfjxC3Ee+cKeIK9o6KVf/KyVQXhC3Ee+SzOIK9o6KVR", 
    1, 
    "KyXFjxC3Ee+tX+IK9o6KVZ", 
    "\u4eba\u7269\u8bed\u97f3"
   ]
  }, 
  {
   "__tuple__": true, 
   "items": [
    "/2147483647/KxcfjxC3Ee+cKeIK9o6KVf", 
    16, 
    "KyY6wBC3Ee+OMOIK9o6KVV", 
    "\u5b59\u7b56"
   ]
  }, 
  {
   "__tuple__": true, 
   "items": [
    "/2147483647/KxcfjxC3Ee+cKeIK9o6KVf/KyY6wBC3Ee+OMOIK9o6KVV", 
    0, 
    "KyY6wRC3Ee+zTuIK9o6KVc", 
    "\u6280\u80fd\u8bed\u97f3"
   ]
  }, 
  {
   "__tuple__": true, 
   "items": [
    "/2147483647/KxcfjxC3Ee+cKeIK9o6KVf/KyY6wBC3Ee+OMOIK9o6KVV", 
    1, 
    "Kyav8BC3Ee+TQOIK9o6KVT", 
    "\u4eba\u7269\u8bed\u97f3"
   ]
  }, 
  {
   "__tuple__": true, 
   "items": [
    "/2147483647/KxcfjxC3Ee+cKeIK9o6KVf", 
    17, 
    "KyclIRC3Ee+Jb+IK9o6KVX", 
    "\u5b59\u5c1a\u9999"
   ]
  }, 
  {
   "__tuple__": true, 
   "items": [
    "/2147483647/KxcfjxC3Ee+cKeIK9o6KVf/KyclIRC3Ee+Jb+IK9o6KVX", 
    0, 
    "KyclIhC3Ee+cCOIK9o6KVZ", 
    "\u6280\u80fd\u8bed\u97f3"
   ]
  }, 
  {
   "__tuple__": true, 
   "items": [
    "/2147483647/KxcfjxC3Ee+cKeIK9o6KVf/KyclIRC3Ee+Jb+IK9o6KVX", 
    1, 
    "KydzQBC3Ee+-ceIK9o6KVa", 
    "\u4eba\u7269\u8bed\u97f3"
   ]
  }, 
  {
   "__tuple__": true, 
   "items": [
    "/2147483647/KxcfjxC3Ee+cKeIK9o6KVf", 
    18, 
    "KyfobhC3Ee+zNOIK9o6KVa", 
    "\u5c0f\u4e54"
   ]
  }, 
  {
   "__tuple__": true, 
   "items": [
    "/2147483647/KxcfjxC3Ee+cKeIK9o6KVf/KyfobhC3Ee+zNOIK9o6KVa", 
    0, 
    "KyfobxC3Ee+f3eIK9o6KVa", 
    "\u4eba\u7269\u8bed\u97f3"
   ]
  }, 
  {
   "__tuple__": true, 
   "items": [
    "/2147483647/KxcfjxC3Ee+cKeIK9o6KVf", 
    19, 
    "Kyg2jxC3Ee+kaeIK9o6KVe", 
    "\u5927\u4e54"
   ]
  }, 
  {
   "__tuple__": true, 
   "items": [
    "/2147483647/KxcfjxC3Ee+cKeIK9o6KVf/Kyg2jxC3Ee+kaeIK9o6KVe", 
    0, 
    "Kyg2kBC3Ee+2mOIK9o6KVY", 
    "\u4eba\u7269\u8bed\u97f3"
   ]
  }, 
  {
   "__tuple__": true, 
   "items": [
    "/2147483647/KxcfjxC3Ee+cKeIK9o6KVf", 
    20, 
    "KyjSzxC3Ee+IVOIK9o6KVa", 
    "\u5415\u8499"
   ]
  }, 
  {
   "__tuple__": true, 
   "items": [
    "/2147483647/KxcfjxC3Ee+cKeIK9o6KVf/KyjSzxC3Ee+IVOIK9o6KVa", 
    0, 
    "KyjS0BC3Ee+BwOIK9o6KVX", 
    "\u6280\u80fd\u8bed\u97f3"
   ]
  }, 
  {
   "__tuple__": true, 
   "items": [
    "/2147483647/KxcfjxC3Ee+cKeIK9o6KVf/KyjSzxC3Ee+IVOIK9o6KVa", 
    1, 
    "KylIABC3Ee+EMOIK9o6KVV", 
    "\u4eba\u7269\u8bed\u97f3"
   ]
  }, 
  {
   "__tuple__": true, 
   "items": [
    "/2147483647/KxcfjxC3Ee+cKeIK9o6KVf", 
    21, 
    "KymWIRC3Ee+7IuIK9o6KVf", 
    "\u5468\u6cf0"
   ]
  }, 
  {
   "__tuple__": true, 
   "items": [
    "/2147483647/KxcfjxC3Ee+cKeIK9o6KVf/KymWIRC3Ee+7IuIK9o6KVf", 
    0, 
    "KymWIhC3Ee+WxOIK9o6KVQ", 
    "\u4eba\u7269\u8bed\u97f3"
   ]
  }, 
  {
   "__tuple__": true, 
   "items": [
    "/2147483647/KxcfjxC3Ee+cKeIK9o6KVf", 
    22, 
    "KynkQBC3Ee+MmeIK9o6KVS", 
    "\u7518\u5b81"
   ]
  }, 
  {
   "__tuple__": true, 
   "items": [
    "/2147483647/KxcfjxC3Ee+cKeIK9o6KVf/KynkQBC3Ee+MmeIK9o6KVS", 
    0, 
    "KynkQRC3Ee+-veIK9o6KVY", 
    "\u6280\u80fd\u8bed\u97f3"
   ]
  }, 
  {
   "__tuple__": true, 
   "items": [
    "/2147483647/KxcfjxC3Ee+cKeIK9o6KVf", 
    23, 
    "KyoyXhC3Ee+i++IK9o6KVT", 
    "\u5f20\u89d2"
   ]
  }, 
  {
   "__tuple__": true, 
   "items": [
    "/2147483647/KxcfjxC3Ee+cKeIK9o6KVf/KyoyXhC3Ee+i++IK9o6KVT", 
    0, 
    "KyoyXxC3Ee+wzOIK9o6KVV", 
    "\u6280\u80fd\u8bed\u97f3"
   ]
  }, 
  {
   "__tuple__": true, 
   "items": [
    "/2147483647/KxcfjxC3Ee+cKeIK9o6KVf/KyoyXhC3Ee+i++IK9o6KVT", 
    1, 
    "KyqnjxC3Ee+JpuIK9o6KVT", 
    "\u4eba\u7269\u8bed\u97f3"
   ]
  }, 
  {
   "__tuple__": true, 
   "items": [
    "/2147483647/KxcfjxC3Ee+cKeIK9o6KVf", 
    24, 
    "Kyr1sBC3Ee+an+IK9o6KVS", 
    "\u8c82\u8749"
   ]
  }, 
  {
   "__tuple__": true, 
   "items": [
    "/2147483647/KxcfjxC3Ee+cKeIK9o6KVf/Kyr1sBC3Ee+an+IK9o6KVS", 
    0, 
    "Kyr1sRC3Ee+t6+IK9o6KVf", 
    "\u6280\u80fd\u8bed\u97f3"
   ]
  }, 
  {
   "__tuple__": true, 
   "items": [
    "/2147483647/KxcfjxC3Ee+cKeIK9o6KVf/Kyr1sBC3Ee+an+IK9o6KVS", 
    1, 
    "Kytq3hC3Ee+Z5uIK9o6KVU", 
    "\u4eba\u7269\u8bed\u97f3"
   ]
  }, 
  {
   "__tuple__": true, 
   "items": [
    "/2147483647/KxcfjxC3Ee+cKeIK9o6KVf", 
    25, 
    "Kyu5ABC3Ee+I2eIK9o6KVZ", 
    "\u592a\u53f2\u6148"
   ]
  }, 
  {
   "__tuple__": true, 
   "items": [
    "/2147483647/KxcfjxC3Ee+cKeIK9o6KVf/Kyu5ABC3Ee+I2eIK9o6KVZ", 
    0, 
    "Kyu5ARC3Ee+GnuIK9o6KVX", 
    "\u4eba\u7269\u8bed\u97f3"
   ]
  }, 
  {
   "__tuple__": true, 
   "items": [
    "/2147483647/KxcfjxC3Ee+cKeIK9o6KVf", 
    26, 
    "KywuMBC3Ee+PjOIK9o6KVX", 
    "\u4e8e\u7981"
   ]
  }, 
  {
   "__tuple__": true, 
   "items": [
    "/2147483647/KxcfjxC3Ee+cKeIK9o6KVf/KywuMBC3Ee+PjOIK9o6KVX", 
    0, 
    "KywuMRC3Ee+V6eIK9o6KVa", 
    "\u6280\u80fd\u8bed\u97f3"
   ]
  }, 
  {
   "__tuple__": true, 
   "items": [
    "/2147483647/KxcfjxC3Ee+cKeIK9o6KVf/KywuMBC3Ee+PjOIK9o6KVX", 
    1, 
    "KyyjYRC3Ee+KKeIK9o6KVW", 
    "\u4eba\u7269\u8bed\u97f3"
   ]
  }, 
  {
   "__tuple__": true, 
   "items": [
    "/2147483647/KxcfjxC3Ee+cKeIK9o6KVf", 
    27, 
    "KyzxgBC3Ee+GKOIK9o6KVQ", 
    "\u5f20\u90c3"
   ]
  }, 
  {
   "__tuple__": true, 
   "items": [
    "/2147483647/KxcfjxC3Ee+cKeIK9o6KVf/KyzxgBC3Ee+GKOIK9o6KVQ", 
    0, 
    "KyzxgRC3Ee+bZ+IK9o6KVS", 
    "\u6280\u80fd\u8bed\u97f3"
   ]
  }, 
  {
   "__tuple__": true, 
   "items": [
    "/2147483647/KxcfjxC3Ee+cKeIK9o6KVf/KyzxgBC3Ee+GKOIK9o6KVQ", 
    1, 
    "Ky1mrhC3Ee+7nOIK9o6KVd", 
    "\u4eba\u7269\u8bed\u97f3"
   ]
  }, 
  {
   "__tuple__": true, 
   "items": [
    "/2147483647/KxcfjxC3Ee+cKeIK9o6KVf", 
    28, 
    "Ky20zxC3Ee+tV+IK9o6KVT", 
    "\u9ec4\u6708\u82f1"
   ]
  }, 
  {
   "__tuple__": true, 
   "items": [
    "/2147483647/KxcfjxC3Ee+cKeIK9o6KVf/Ky20zxC3Ee+tV+IK9o6KVT", 
    0, 
    "Ky3b3hC3Ee+oHOIK9o6KVa", 
    "\u6280\u80fd\u8bed\u97f3"
   ]
  }, 
  {
   "__tuple__": true, 
   "items": [
    "/2147483647/KxcfjxC3Ee+cKeIK9o6KVf/Ky20zxC3Ee+tV+IK9o6KVT", 
    1, 
    "Ky4qABC3Ee+NVeIK9o6KVY", 
    "\u4eba\u7269\u8bed\u97f3"
   ]
  }, 
  {
   "__tuple__": true, 
   "items": [
    "/2147483647/KxcfjxC3Ee+cKeIK9o6KVf", 
    29, 
    "Ky54IRC3Ee+FQOIK9o6KVf", 
    "\u5b5f\u83b7"
   ]
  }, 
  {
   "__tuple__": true, 
   "items": [
    "/2147483647/KxcfjxC3Ee+cKeIK9o6KVf/Ky54IRC3Ee+FQOIK9o6KVf", 
    0, 
    "Ky54IhC3Ee+PlOIK9o6KVR", 
    "\u6280\u80fd\u8bed\u97f3"
   ]
  }, 
  {
   "__tuple__": true, 
   "items": [
    "/2147483647/KxcfjxC3Ee+cKeIK9o6KVf/Ky54IRC3Ee+FQOIK9o6KVf", 
    1, 
    "Ky7GQBC3Ee+VseIK9o6KVT", 
    "\u4eba\u7269\u8bed\u97f3"
   ]
  }, 
  {
   "__tuple__": true, 
   "items": [
    "/2147483647/KxcfjxC3Ee+cKeIK9o6KVf", 
    30, 
    "Ky8UYRC3Ee+zaeIK9o6KVV", 
    "\u5468\u745c"
   ]
  }, 
  {
   "__tuple__": true, 
   "items": [
    "/2147483647/KxcfjxC3Ee+cKeIK9o6KVf/Ky8UYRC3Ee+zaeIK9o6KVV", 
    0, 
    "Ky8UYhC3Ee+XluIK9o6KVd", 
    "\u6280\u80fd\u8bed\u97f3\uff08\u6709\u95ee\u9898\uff09"
   ]
  }, 
  {
   "__tuple__": true, 
   "items": [
    "/2147483647/KxcfjxC3Ee+cKeIK9o6KVf/Ky8UYRC3Ee+zaeIK9o6KVV", 
    1, 
    "Ky9igBC3Ee+GHuIK9o6KVc", 
    "\u4eba\u7269\u8bed\u97f3"
   ]
  }, 
  {
   "__tuple__": true, 
   "items": [
    "/2147483647", 
    1, 
    "Ky+woRC3Ee+tj+IK9o6KVV", 
    "Music"
   ]
  }, 
  {
   "__tuple__": true, 
   "items": [
    "/2147483647", 
    2, 
    "KzAlzxC3Ee+nv+IK9o6KVd", 
    "Sound Effects"
   ]
  }, 
  {
   "__tuple__": true, 
   "items": [
    "/2147483647", 
    3, 
    "KzEQMBC3Ee+eFuIK9o6KVY", 
    "Voice"
   ]
  }
 ], 
 "d": {
  "134265385": {
   "__tuple__": true, 
   "items": [
    "KxcfkRC3Ee+Z+eIK9o6KVS", 
    0
   ]
  }, 
  "134219465": {
   "__tuple__": true, 
   "items": [
    "KxcfkRC3Ee+Z+eIK9o6KVS", 
    1
   ]
  }, 
  "134255425": {
   "__tuple__": true, 
   "items": [
    "KxcfkRC3Ee+Z+eIK9o6KVS", 
    2
   ]
  }, 
  "134277829": {
   "__tuple__": true, 
   "items": [
    "KxcfkRC3Ee+Z+eIK9o6KVS", 
    3
   ]
  }, 
  "134249792": {
   "__tuple__": true, 
   "items": [
    "KxeUwBC3Ee+B1eIK9o6KVe", 
    0
   ]
  }, 
  "134256304": {
   "__tuple__": true, 
   "items": [
    "KxeUwBC3Ee+B1eIK9o6KVe", 
    1
   ]
  }, 
  "134230856": {
   "__tuple__": true, 
   "items": [
    "KxeUwBC3Ee+B1eIK9o6KVe", 
    2
   ]
  }, 
  "134247803": {
   "__tuple__": true, 
   "items": [
    "KxeUwBC3Ee+B1eIK9o6KVe", 
    3
   ]
  }, 
  "134233936": {
   "__tuple__": true, 
   "items": [
    "KxgJ8RC3Ee+iLOIK9o6KVT", 
    0
   ]
  }, 
  "134241926": {
   "__tuple__": true, 
   "items": [
    "KxgJ8RC3Ee+iLOIK9o6KVT", 
    1
   ]
  }, 
  "134219307": {
   "__tuple__": true, 
   "items": [
    "KxgJ8RC3Ee+iLOIK9o6KVT", 
    2
   ]
  }, 
  "134250291": {
   "__tuple__": true, 
   "items": [
    "KxgJ8RC3Ee+iLOIK9o6KVT", 
    3
   ]
  }, 
  "134238241": {
   "__tuple__": true, 
   "items": [
    "Kxh-IRC3Ee+sHOIK9o6KVc", 
    0
   ]
  }, 
  "134257799": {
   "__tuple__": true, 
   "items": [
    "Kxh-IRC3Ee+sHOIK9o6KVc", 
    1
   ]
  }, 
  "134220627": {
   "__tuple__": true, 
   "items": [
    "Kxh-IRC3Ee+sHOIK9o6KVc", 
    2
   ]
  }, 
  "134267948": {
   "__tuple__": true, 
   "items": [
    "Kxh-IRC3Ee+sHOIK9o6KVc", 
    3
   ]
  }, 
  "134228084": {
   "__tuple__": true, 
   "items": [
    "KxkbYhC3Ee+CA+IK9o6KVQ", 
    0
   ]
  }, 
  "134259518": {
   "__tuple__": true, 
   "items": [
    "KxkbYhC3Ee+CA+IK9o6KVQ", 
    1
   ]
  }, 
  "134221922": {
   "__tuple__": true, 
   "items": [
    "KxkbYhC3Ee+CA+IK9o6KVQ", 
    2
   ]
  }, 
  "134249714": {
   "__tuple__": true, 
   "items": [
    "KxkbYhC3Ee+CA+IK9o6KVQ", 
    3
   ]
  }, 
  "134250739": {
   "__tuple__": true, 
   "items": [
    "Kxm3nhC3Ee+xN+IK9o6KVf", 
    0
   ]
  }, 
  "134274155": {
   "__tuple__": true, 
   "items": [
    "Kxm3nhC3Ee+xN+IK9o6KVf", 
    1
   ]
  }, 
  "134268376": {
   "__tuple__": true, 
   "items": [
    "Kxm3nhC3Ee+xN+IK9o6KVf", 
    2
   ]
  }, 
  "134246262": {
   "__tuple__": true, 
   "items": [
    "Kxm3nhC3Ee+xN+IK9o6KVf", 
    3
   ]
  }, 
  "134234384": {
   "__tuple__": true, 
   "items": [
    "Kxos0BC3Ee+zVeIK9o6KVT", 
    0
   ]
  }, 
  "134222128": {
   "__tuple__": true, 
   "items": [
    "Kxos0BC3Ee+zVeIK9o6KVT", 
    1
   ]
  }, 
  "134262680": {
   "__tuple__": true, 
   "items": [
    "Kxp68BC3Ee+z3OIK9o6KVS", 
    0
   ]
  }, 
  "134261307": {
   "__tuple__": true, 
   "items": [
    "Kxp68BC3Ee+z3OIK9o6KVS", 
    1
   ]
  }, 
  "134268563": {
   "__tuple__": true, 
   "items": [
    "Kxp68BC3Ee+z3OIK9o6KVS", 
    2
   ]
  }, 
  "134264718": {
   "__tuple__": true, 
   "items": [
    "KxrwIhC3Ee+08OIK9o6KVd", 
    0
   ]
  }, 
  "134282377": {
   "__tuple__": true, 
   "items": [
    "KxrwIhC3Ee+08OIK9o6KVd", 
    1
   ]
  }, 
  "134248026": {
   "__tuple__": true, 
   "items": [
    "KxrwIhC3Ee+08OIK9o6KVd", 
    2
   ]
  }, 
  "134274487": {
   "__tuple__": true, 
   "items": [
    "KxrwIhC3Ee+08OIK9o6KVd", 
    3
   ]
  }, 
  "134276515": {
   "__tuple__": true, 
   "items": [
    "KxuzcBC3Ee+XLOIK9o6KVR", 
    0
   ]
  }, 
  "134238287": {
   "__tuple__": true, 
   "items": [
    "KxuzcBC3Ee+XLOIK9o6KVR", 
    1
   ]
  }, 
  "134271688": {
   "__tuple__": true, 
   "items": [
    "KxuzcBC3Ee+XLOIK9o6KVR", 
    2
   ]
  }, 
  "134221040": {
   "__tuple__": true, 
   "items": [
    "KxuzcBC3Ee+XLOIK9o6KVR", 
    3
   ]
  }, 
  "134231455": {
   "__tuple__": true, 
   "items": [
    "Kxx2wRC3Ee+S8uIK9o6KVY", 
    0
   ]
  }, 
  "134249592": {
   "__tuple__": true, 
   "items": [
    "Kxx2wRC3Ee+S8uIK9o6KVY", 
    1
   ]
  }, 
  "134218107": {
   "__tuple__": true, 
   "items": [
    "Kxx2wRC3Ee+S8uIK9o6KVY", 
    2
   ]
  }, 
  "134217954": {
   "__tuple__": true, 
   "items": [
    "Kxx2wRC3Ee+S8uIK9o6KVY", 
    3
   ]
  }, 
  "134243929": {
   "__tuple__": true, 
   "items": [
    "Kxx2wRC3Ee+S8uIK9o6KVY", 
    4
   ]
  }, 
  "134259659": {
   "__tuple__": true, 
   "items": [
    "Kxx2wRC3Ee+S8uIK9o6KVY", 
    5
   ]
  }, 
  "134239522": {
   "__tuple__": true, 
   "items": [
    "Kxx2wRC3Ee+S8uIK9o6KVY", 
    6
   ]
  }, 
  "134258185": {
   "__tuple__": true, 
   "items": [
    "Kxx2wRC3Ee+S8uIK9o6KVY", 
    7
   ]
  }, 
  "134227136": {
   "__tuple__": true, 
   "items": [
    "Kx2vQBC3Ee+SV+IK9o6KVf", 
    0
   ]
  }, 
  "134247210": {
   "__tuple__": true, 
   "items": [
    "Kx2vQBC3Ee+SV+IK9o6KVf", 
    1
   ]
  }, 
  "134276453": {
   "__tuple__": true, 
   "items": [
    "Kx2vQBC3Ee+SV+IK9o6KVf", 
    2
   ]
  }, 
  "134243733": {
   "__tuple__": true, 
   "items": [
    "Kx2vQBC3Ee+SV+IK9o6KVf", 
    3
   ]
  }, 
  "134232016": {
   "__tuple__": true, 
   "items": [
    "Kx5LgRC3Ee+qQOIK9o6KVW", 
    0
   ]
  }, 
  "134236469": {
   "__tuple__": true, 
   "items": [
    "Kx5LgRC3Ee+qQOIK9o6KVW", 
    1
   ]
  }, 
  "134237635": {
   "__tuple__": true, 
   "items": [
    "Kx5LgRC3Ee+qQOIK9o6KVW", 
    2
   ]
  }, 
  "134250293": {
   "__tuple__": true, 
   "items": [
    "Kx5LgRC3Ee+qQOIK9o6KVW", 
    3
   ]
  }, 
  "134240951": {
   "__tuple__": true, 
   "items": [
    "Kx7AsBC3Ee+8ouIK9o6KVQ", 
    0
   ]
  }, 
  "134232931": {
   "__tuple__": true, 
   "items": [
    "Kx7AsBC3Ee+8ouIK9o6KVQ", 
    1
   ]
  }, 
  "134227733": {
   "__tuple__": true, 
   "items": [
    "Kx7AsBC3Ee+8ouIK9o6KVQ", 
    2
   ]
  }, 
  "134223397": {
   "__tuple__": true, 
   "items": [
    "Kx7AsBC3Ee+8ouIK9o6KVQ", 
    3
   ]
  }, 
  "134224070": {
   "__tuple__": true, 
   "items": [
    "Kx+EARC3Ee+B9uIK9o6KVW", 
    0
   ]
  }, 
  "134275790": {
   "__tuple__": true, 
   "items": [
    "Kx+EARC3Ee+B9uIK9o6KVW", 
    1
   ]
  }, 
  "134221074": {
   "__tuple__": true, 
   "items": [
    "Kx+EARC3Ee+B9uIK9o6KVW", 
    2
   ]
  }, 
  "134267367": {
   "__tuple__": true, 
   "items": [
    "Kx-SHhC3Ee+Go+IK9o6KVd", 
    0
   ]
  }, 
  "134226924": {
   "__tuple__": true, 
   "items": [
    "Kx-SHhC3Ee+Go+IK9o6KVd", 
    1
   ]
  }, 
  "134267698": {
   "__tuple__": true, 
   "items": [
    "Kx-SHhC3Ee+Go+IK9o6KVd", 
    2
   ]
  }, 
  "134274079": {
   "__tuple__": true, 
   "items": [
    "Kx-SHhC3Ee+Go+IK9o6KVd", 
    3
   ]
  }, 
  "134255716": {
   "__tuple__": true, 
   "items": [
    "KyBHUBC3Ee+k2+IK9o6KVc", 
    0
   ]
  }, 
  "134251782": {
   "__tuple__": true, 
   "items": [
    "KyBHUBC3Ee+k2+IK9o6KVc", 
    1
   ]
  }, 
  "134283214": {
   "__tuple__": true, 
   "items": [
    "KyBHUBC3Ee+k2+IK9o6KVc", 
    2
   ]
  }, 
  "134266056": {
   "__tuple__": true, 
   "items": [
    "KyCVcBC3Ee+gcOIK9o6KVV", 
    0
   ]
  }, 
  "134227917": {
   "__tuple__": true, 
   "items": [
    "KyCVcBC3Ee+gcOIK9o6KVV", 
    1
   ]
  }, 
  "134241526": {
   "__tuple__": true, 
   "items": [
    "KyCVcBC3Ee+gcOIK9o6KVV", 
    2
   ]
  }, 
  "134275043": {
   "__tuple__": true, 
   "items": [
    "KyCVcBC3Ee+gcOIK9o6KVV", 
    3
   ]
  }, 
  "134280256": {
   "__tuple__": true, 
   "items": [
    "KyEKohC3Ee+AVOIK9o6KVf", 
    0
   ]
  }, 
  "134273342": {
   "__tuple__": true, 
   "items": [
    "KyEKohC3Ee+AVOIK9o6KVf", 
    1
   ]
  }, 
  "134242802": {
   "__tuple__": true, 
   "items": [
    "KyEKohC3Ee+AVOIK9o6KVf", 
    2
   ]
  }, 
  "134279643": {
   "__tuple__": true, 
   "items": [
    "KyF-0RC3Ee+Lf+IK9o6KVQ", 
    0
   ]
  }, 
  "134221634": {
   "__tuple__": true, 
   "items": [
    "KyF-0RC3Ee+Lf+IK9o6KVQ", 
    1
   ]
  }, 
  "134221856": {
   "__tuple__": true, 
   "items": [
    "KyF-0RC3Ee+Lf+IK9o6KVQ", 
    2
   ]
  }, 
  "134234605": {
   "__tuple__": true, 
   "items": [
    "KyF-0RC3Ee+Lf+IK9o6KVQ", 
    3
   ]
  }, 
  "134269447": {
   "__tuple__": true, 
   "items": [
    "KyH1ARC3Ee+mEuIK9o6KVb", 
    0
   ]
  }, 
  "134252359": {
   "__tuple__": true, 
   "items": [
    "KyH1ARC3Ee+mEuIK9o6KVb", 
    1
   ]
  }, 
  "134254886": {
   "__tuple__": true, 
   "items": [
    "KyH1ARC3Ee+mEuIK9o6KVb", 
    2
   ]
  }, 
  "134227142": {
   "__tuple__": true, 
   "items": [
    "KyH1ARC3Ee+mEuIK9o6KVb", 
    3
   ]
  }, 
  "134231292": {
   "__tuple__": true, 
   "items": [
    "KyJDHhC3Ee+hFOIK9o6KVS", 
    0
   ]
  }, 
  "134278272": {
   "__tuple__": true, 
   "items": [
    "KyJDHhC3Ee+hFOIK9o6KVS", 
    1
   ]
  }, 
  "134262244": {
   "__tuple__": true, 
   "items": [
    "KyJDHhC3Ee+hFOIK9o6KVS", 
    2
   ]
  }, 
  "134265284": {
   "__tuple__": true, 
   "items": [
    "KyJDHhC3Ee+hFOIK9o6KVS", 
    3
   ]
  }, 
  "134239249": {
   "__tuple__": true, 
   "items": [
    "KyK4UBC3Ee+RreIK9o6KVe", 
    0
   ]
  }, 
  "134267699": {
   "__tuple__": true, 
   "items": [
    "KyK4UBC3Ee+RreIK9o6KVe", 
    1
   ]
  }, 
  "134246534": {
   "__tuple__": true, 
   "items": [
    "KyK4UBC3Ee+RreIK9o6KVe", 
    2
   ]
  }, 
  "134238642": {
   "__tuple__": true, 
   "items": [
    "KyLfXhC3Ee+8IOIK9o6KVT", 
    0
   ]
  }, 
  "134265081": {
   "__tuple__": true, 
   "items": [
    "KyLfXhC3Ee+8IOIK9o6KVT", 
    1
   ]
  }, 
  "134264507": {
   "__tuple__": true, 
   "items": [
    "KyLfXhC3Ee+8IOIK9o6KVT", 
    2
   ]
  }, 
  "134244360": {
   "__tuple__": true, 
   "items": [
    "KyLfXhC3Ee+8IOIK9o6KVT", 
    3
   ]
  }, 
  "134257420": {
   "__tuple__": true, 
   "items": [
    "KyNUkBC3Ee+cWOIK9o6KVZ", 
    0
   ]
  }, 
  "134264626": {
   "__tuple__": true, 
   "items": [
    "KyNUkBC3Ee+cWOIK9o6KVZ", 
    1
   ]
  }, 
  "134247749": {
   "__tuple__": true, 
   "items": [
    "KyNUkBC3Ee+cWOIK9o6KVZ", 
    2
   ]
  }, 
  "134221492": {
   "__tuple__": true, 
   "items": [
    "KyN7oRC3Ee+jouIK9o6KVe", 
    0
   ]
  }, 
  "134239066": {
   "__tuple__": true, 
   "items": [
    "KyN7oRC3Ee+jouIK9o6KVe", 
    1
   ]
  }, 
  "134225364": {
   "__tuple__": true, 
   "items": [
    "KyN7oRC3Ee+jouIK9o6KVe", 
    2
   ]
  }, 
  "134269083": {
   "__tuple__": true, 
   "items": [
    "KyN7oRC3Ee+jouIK9o6KVe", 
    3
   ]
  }, 
  "134236083": {
   "__tuple__": true, 
   "items": [
    "KyPw0hC3Ee+PkeIK9o6KVS", 
    0
   ]
  }, 
  "134250059": {
   "__tuple__": true, 
   "items": [
    "KyPw0hC3Ee+PkeIK9o6KVS", 
    1
   ]
  }, 
  "134221578": {
   "__tuple__": true, 
   "items": [
    "KyPw0hC3Ee+PkeIK9o6KVS", 
    2
   ]
  }, 
  "134231355": {
   "__tuple__": true, 
   "items": [
    "KyPw0hC3Ee+PkeIK9o6KVS", 
    3
   ]
  }, 
  "134278995": {
   "__tuple__": true, 
   "items": [
    "KyRmARC3Ee+r3OIK9o6KVX", 
    0
   ]
  }, 
  "134261294": {
   "__tuple__": true, 
   "items": [
    "KyRmARC3Ee+r3OIK9o6KVX", 
    1
   ]
  }, 
  "134248386": {
   "__tuple__": true, 
   "items": [
    "KyRmARC3Ee+r3OIK9o6KVX", 
    2
   ]
  }, 
  "134219250": {
   "__tuple__": true, 
   "items": [
    "KyRmARC3Ee+r3OIK9o6KVX", 
    3
   ]
  }, 
  "134246760": {
   "__tuple__": true, 
   "items": [
    "KyTbLhC3Ee+zEeIK9o6KVU", 
    0
   ]
  }, 
  "134269421": {
   "__tuple__": true, 
   "items": [
    "KyTbLhC3Ee+zEeIK9o6KVU", 
    1
   ]
  }, 
  "134275164": {
   "__tuple__": true, 
   "items": [
    "KyTbLhC3Ee+zEeIK9o6KVU", 
    2
   ]
  }, 
  "134253898": {
   "__tuple__": true, 
   "items": [
    "KyTbLhC3Ee+zEeIK9o6KVU", 
    3
   ]
  }, 
  "134237976": {
   "__tuple__": true, 
   "items": [
    "KyVQXxC3Ee+DS+IK9o6KVW", 
    0
   ]
  }, 
  "134259209": {
   "__tuple__": true, 
   "items": [
    "KyVQXxC3Ee+DS+IK9o6KVW", 
    1
   ]
  }, 
  "134259883": {
   "__tuple__": true, 
   "items": [
    "KyVQXxC3Ee+DS+IK9o6KVW", 
    2
   ]
  }, 
  "134255839": {
   "__tuple__": true, 
   "items": [
    "KyXFjxC3Ee+tX+IK9o6KVZ", 
    0
   ]
  }, 
  "134248835": {
   "__tuple__": true, 
   "items": [
    "KyXFjxC3Ee+tX+IK9o6KVZ", 
    1
   ]
  }, 
  "134264381": {
   "__tuple__": true, 
   "items": [
    "KyXFjxC3Ee+tX+IK9o6KVZ", 
    2
   ]
  }, 
  "134259109": {
   "__tuple__": true, 
   "items": [
    "KyXFjxC3Ee+tX+IK9o6KVZ", 
    3
   ]
  }, 
  "134278555": {
   "__tuple__": true, 
   "items": [
    "KyY6wRC3Ee+zTuIK9o6KVc", 
    0
   ]
  }, 
  "134278744": {
   "__tuple__": true, 
   "items": [
    "KyY6wRC3Ee+zTuIK9o6KVc", 
    1
   ]
  }, 
  "134243965": {
   "__tuple__": true, 
   "items": [
    "KyY6wRC3Ee+zTuIK9o6KVc", 
    2
   ]
  }, 
  "134262505": {
   "__tuple__": true, 
   "items": [
    "KyY6wRC3Ee+zTuIK9o6KVc", 
    3
   ]
  }, 
  "134238527": {
   "__tuple__": true, 
   "items": [
    "Kyav8BC3Ee+TQOIK9o6KVT", 
    0
   ]
  }, 
  "134255118": {
   "__tuple__": true, 
   "items": [
    "Kyav8BC3Ee+TQOIK9o6KVT", 
    1
   ]
  }, 
  "134224811": {
   "__tuple__": true, 
   "items": [
    "Kyav8BC3Ee+TQOIK9o6KVT", 
    2
   ]
  }, 
  "134277633": {
   "__tuple__": true, 
   "items": [
    "Kyav8BC3Ee+TQOIK9o6KVT", 
    3
   ]
  }, 
  "134270372": {
   "__tuple__": true, 
   "items": [
    "KyclIhC3Ee+cCOIK9o6KVZ", 
    0
   ]
  }, 
  "134230816": {
   "__tuple__": true, 
   "items": [
    "KyclIhC3Ee+cCOIK9o6KVZ", 
    1
   ]
  }, 
  "134278971": {
   "__tuple__": true, 
   "items": [
    "KyclIhC3Ee+cCOIK9o6KVZ", 
    2
   ]
  }, 
  "134244895": {
   "__tuple__": true, 
   "items": [
    "KyclIhC3Ee+cCOIK9o6KVZ", 
    3
   ]
  }, 
  "134256990": {
   "__tuple__": true, 
   "items": [
    "KydzQBC3Ee+-ceIK9o6KVa", 
    0
   ]
  }, 
  "134220003": {
   "__tuple__": true, 
   "items": [
    "KydzQBC3Ee+-ceIK9o6KVa", 
    1
   ]
  }, 
  "134227773": {
   "__tuple__": true, 
   "items": [
    "KydzQBC3Ee+-ceIK9o6KVa", 
    2
   ]
  }, 
  "134220332": {
   "__tuple__": true, 
   "items": [
    "KydzQBC3Ee+-ceIK9o6KVa", 
    3
   ]
  }, 
  "134261932": {
   "__tuple__": true, 
   "items": [
    "KyfobxC3Ee+f3eIK9o6KVa", 
    0
   ]
  }, 
  "134263910": {
   "__tuple__": true, 
   "items": [
    "KyfobxC3Ee+f3eIK9o6KVa", 
    1
   ]
  }, 
  "134235055": {
   "__tuple__": true, 
   "items": [
    "KyfobxC3Ee+f3eIK9o6KVa", 
    2
   ]
  }, 
  "134271763": {
   "__tuple__": true, 
   "items": [
    "KyfobxC3Ee+f3eIK9o6KVa", 
    3
   ]
  }, 
  "134223301": {
   "__tuple__": true, 
   "items": [
    "Kyg2kBC3Ee+2mOIK9o6KVY", 
    0
   ]
  }, 
  "134246698": {
   "__tuple__": true, 
   "items": [
    "Kyg2kBC3Ee+2mOIK9o6KVY", 
    1
   ]
  }, 
  "134219440": {
   "__tuple__": true, 
   "items": [
    "Kyg2kBC3Ee+2mOIK9o6KVY", 
    2
   ]
  }, 
  "134232380": {
   "__tuple__": true, 
   "items": [
    "Kyg2kBC3Ee+2mOIK9o6KVY", 
    3
   ]
  }, 
  "134254831": {
   "__tuple__": true, 
   "items": [
    "KyjS0BC3Ee+BwOIK9o6KVX", 
    0
   ]
  }, 
  "134235802": {
   "__tuple__": true, 
   "items": [
    "KyjS0BC3Ee+BwOIK9o6KVX", 
    1
   ]
  }, 
  "134230111": {
   "__tuple__": true, 
   "items": [
    "KyjS0BC3Ee+BwOIK9o6KVX", 
    2
   ]
  }, 
  "134220299": {
   "__tuple__": true, 
   "items": [
    "KyjS0BC3Ee+BwOIK9o6KVX", 
    3
   ]
  }, 
  "134275110": {
   "__tuple__": true, 
   "items": [
    "KylIABC3Ee+EMOIK9o6KVV", 
    0
   ]
  }, 
  "134259092": {
   "__tuple__": true, 
   "items": [
    "KylIABC3Ee+EMOIK9o6KVV", 
    1
   ]
  }, 
  "134267640": {
   "__tuple__": true, 
   "items": [
    "KylIABC3Ee+EMOIK9o6KVV", 
    2
   ]
  }, 
  "134237885": {
   "__tuple__": true, 
   "items": [
    "KylIABC3Ee+EMOIK9o6KVV", 
    3
   ]
  }, 
  "134261319": {
   "__tuple__": true, 
   "items": [
    "KymWIhC3Ee+WxOIK9o6KVQ", 
    0
   ]
  }, 
  "134254917": {
   "__tuple__": true, 
   "items": [
    "KymWIhC3Ee+WxOIK9o6KVQ", 
    1
   ]
  }, 
  "134229127": {
   "__tuple__": true, 
   "items": [
    "KymWIhC3Ee+WxOIK9o6KVQ", 
    2
   ]
  }, 
  "134239213": {
   "__tuple__": true, 
   "items": [
    "KymWIhC3Ee+WxOIK9o6KVQ", 
    3
   ]
  }, 
  "134263415": {
   "__tuple__": true, 
   "items": [
    "KynkQRC3Ee+-veIK9o6KVY", 
    0
   ]
  }, 
  "134218964": {
   "__tuple__": true, 
   "items": [
    "KynkQRC3Ee+-veIK9o6KVY", 
    1
   ]
  }, 
  "134268823": {
   "__tuple__": true, 
   "items": [
    "KynkQRC3Ee+-veIK9o6KVY", 
    2
   ]
  }, 
  "134271537": {
   "__tuple__": true, 
   "items": [
    "KynkQRC3Ee+-veIK9o6KVY", 
    3
   ]
  }, 
  "134261599": {
   "__tuple__": true, 
   "items": [
    "KyoyXxC3Ee+wzOIK9o6KVV", 
    0
   ]
  }, 
  "134236125": {
   "__tuple__": true, 
   "items": [
    "KyoyXxC3Ee+wzOIK9o6KVV", 
    1
   ]
  }, 
  "134256787": {
   "__tuple__": true, 
   "items": [
    "KyoyXxC3Ee+wzOIK9o6KVV", 
    2
   ]
  }, 
  "134232047": {
   "__tuple__": true, 
   "items": [
    "KyoyXxC3Ee+wzOIK9o6KVV", 
    3
   ]
  }, 
  "134232649": {
   "__tuple__": true, 
   "items": [
    "KyqnjxC3Ee+JpuIK9o6KVT", 
    0
   ]
  }, 
  "134253814": {
   "__tuple__": true, 
   "items": [
    "KyqnjxC3Ee+JpuIK9o6KVT", 
    1
   ]
  }, 
  "134223073": {
   "__tuple__": true, 
   "items": [
    "KyqnjxC3Ee+JpuIK9o6KVT", 
    2
   ]
  }, 
  "134225381": {
   "__tuple__": true, 
   "items": [
    "KyqnjxC3Ee+JpuIK9o6KVT", 
    3
   ]
  }, 
  "134258213": {
   "__tuple__": true, 
   "items": [
    "Kyr1sRC3Ee+t6+IK9o6KVf", 
    0
   ]
  }, 
  "134268093": {
   "__tuple__": true, 
   "items": [
    "Kyr1sRC3Ee+t6+IK9o6KVf", 
    1
   ]
  }, 
  "134281387": {
   "__tuple__": true, 
   "items": [
    "Kyr1sRC3Ee+t6+IK9o6KVf", 
    2
   ]
  }, 
  "134266884": {
   "__tuple__": true, 
   "items": [
    "Kyr1sRC3Ee+t6+IK9o6KVf", 
    3
   ]
  }, 
  "134228627": {
   "__tuple__": true, 
   "items": [
    "Kytq3hC3Ee+Z5uIK9o6KVU", 
    0
   ]
  }, 
  "134238297": {
   "__tuple__": true, 
   "items": [
    "Kytq3hC3Ee+Z5uIK9o6KVU", 
    1
   ]
  }, 
  "134278210": {
   "__tuple__": true, 
   "items": [
    "Kytq3hC3Ee+Z5uIK9o6KVU", 
    2
   ]
  }, 
  "134229267": {
   "__tuple__": true, 
   "items": [
    "Kytq3hC3Ee+Z5uIK9o6KVU", 
    3
   ]
  }, 
  "134244778": {
   "__tuple__": true, 
   "items": [
    "Kyu5ARC3Ee+GnuIK9o6KVX", 
    0
   ]
  }, 
  "134234464": {
   "__tuple__": true, 
   "items": [
    "Kyu5ARC3Ee+GnuIK9o6KVX", 
    1
   ]
  }, 
  "134237606": {
   "__tuple__": true, 
   "items": [
    "Kyu5ARC3Ee+GnuIK9o6KVX", 
    2
   ]
  }, 
  "134237853": {
   "__tuple__": true, 
   "items": [
    "Kyu5ARC3Ee+GnuIK9o6KVX", 
    3
   ]
  }, 
  "134254854": {
   "__tuple__": true, 
   "items": [
    "KywuMRC3Ee+V6eIK9o6KVa", 
    0
   ]
  }, 
  "134271873": {
   "__tuple__": true, 
   "items": [
    "KywuMRC3Ee+V6eIK9o6KVa", 
    1
   ]
  }, 
  "134251511": {
   "__tuple__": true, 
   "items": [
    "KywuMRC3Ee+V6eIK9o6KVa", 
    2
   ]
  }, 
  "134233121": {
   "__tuple__": true, 
   "items": [
    "KywuMRC3Ee+V6eIK9o6KVa", 
    3
   ]
  }, 
  "134226695": {
   "__tuple__": true, 
   "items": [
    "KyyjYRC3Ee+KKeIK9o6KVW", 
    0
   ]
  }, 
  "134272196": {
   "__tuple__": true, 
   "items": [
    "KyyjYRC3Ee+KKeIK9o6KVW", 
    1
   ]
  }, 
  "134265370": {
   "__tuple__": true, 
   "items": [
    "KyyjYRC3Ee+KKeIK9o6KVW", 
    2
   ]
  }, 
  "134281526": {
   "__tuple__": true, 
   "items": [
    "KyyjYRC3Ee+KKeIK9o6KVW", 
    3
   ]
  }, 
  "134228290": {
   "__tuple__": true, 
   "items": [
    "KyzxgRC3Ee+bZ+IK9o6KVS", 
    0
   ]
  }, 
  "134237957": {
   "__tuple__": true, 
   "items": [
    "KyzxgRC3Ee+bZ+IK9o6KVS", 
    1
   ]
  }, 
  "134221189": {
   "__tuple__": true, 
   "items": [
    "KyzxgRC3Ee+bZ+IK9o6KVS", 
    2
   ]
  }, 
  "134229442": {
   "__tuple__": true, 
   "items": [
    "KyzxgRC3Ee+bZ+IK9o6KVS", 
    3
   ]
  }, 
  "134272924": {
   "__tuple__": true, 
   "items": [
    "Ky1mrhC3Ee+7nOIK9o6KVd", 
    0
   ]
  }, 
  "134226304": {
   "__tuple__": true, 
   "items": [
    "Ky1mrhC3Ee+7nOIK9o6KVd", 
    1
   ]
  }, 
  "134256730": {
   "__tuple__": true, 
   "items": [
    "Ky1mrhC3Ee+7nOIK9o6KVd", 
    2
   ]
  }, 
  "134222843": {
   "__tuple__": true, 
   "items": [
    "Ky1mrhC3Ee+7nOIK9o6KVd", 
    3
   ]
  }, 
  "134232282": {
   "__tuple__": true, 
   "items": [
    "Ky1mrhC3Ee+7nOIK9o6KVd", 
    4
   ]
  }, 
  "134242315": {
   "__tuple__": true, 
   "items": [
    "Ky3b3hC3Ee+oHOIK9o6KVa", 
    0
   ]
  }, 
  "134265374": {
   "__tuple__": true, 
   "items": [
    "Ky3b3hC3Ee+oHOIK9o6KVa", 
    1
   ]
  }, 
  "134259422": {
   "__tuple__": true, 
   "items": [
    "Ky3b3hC3Ee+oHOIK9o6KVa", 
    2
   ]
  }, 
  "134278870": {
   "__tuple__": true, 
   "items": [
    "Ky3b3hC3Ee+oHOIK9o6KVa", 
    3
   ]
  }, 
  "134254080": {
   "__tuple__": true, 
   "items": [
    "Ky4qABC3Ee+NVeIK9o6KVY", 
    0
   ]
  }, 
  "134253145": {
   "__tuple__": true, 
   "items": [
    "Ky4qABC3Ee+NVeIK9o6KVY", 
    1
   ]
  }, 
  "134224910": {
   "__tuple__": true, 
   "items": [
    "Ky4qABC3Ee+NVeIK9o6KVY", 
    2
   ]
  }, 
  "134247953": {
   "__tuple__": true, 
   "items": [
    "Ky4qABC3Ee+NVeIK9o6KVY", 
    3
   ]
  }, 
  "134235195": {
   "__tuple__": true, 
   "items": [
    "Ky54IhC3Ee+PlOIK9o6KVR", 
    0
   ]
  }, 
  "134246993": {
   "__tuple__": true, 
   "items": [
    "Ky54IhC3Ee+PlOIK9o6KVR", 
    1
   ]
  }, 
  "134252040": {
   "__tuple__": true, 
   "items": [
    "Ky54IhC3Ee+PlOIK9o6KVR", 
    2
   ]
  }, 
  "134225135": {
   "__tuple__": true, 
   "items": [
    "Ky7GQBC3Ee+VseIK9o6KVT", 
    0
   ]
  }, 
  "134230321": {
   "__tuple__": true, 
   "items": [
    "Ky7GQBC3Ee+VseIK9o6KVT", 
    1
   ]
  }, 
  "134277731": {
   "__tuple__": true, 
   "items": [
    "Ky7GQBC3Ee+VseIK9o6KVT", 
    2
   ]
  }, 
  "134253230": {
   "__tuple__": true, 
   "items": [
    "Ky7GQBC3Ee+VseIK9o6KVT", 
    3
   ]
  }, 
  "134268065": {
   "__tuple__": true, 
   "items": [
    "Ky8UYhC3Ee+XluIK9o6KVd", 
    0
   ]
  }, 
  "134227224": {
   "__tuple__": true, 
   "items": [
    "Ky8UYhC3Ee+XluIK9o6KVd", 
    1
   ]
  }, 
  "134218241": {
   "__tuple__": true, 
   "items": [
    "Ky8UYhC3Ee+XluIK9o6KVd", 
    2
   ]
  }, 
  "134270753": {
   "__tuple__": true, 
   "items": [
    "Ky9igBC3Ee+GHuIK9o6KVc", 
    0
   ]
  }, 
  "134265598": {
   "__tuple__": true, 
   "items": [
    "Ky9igBC3Ee+GHuIK9o6KVc", 
    1
   ]
  }, 
  "134261159": {
   "__tuple__": true, 
   "items": [
    "Ky9igBC3Ee+GHuIK9o6KVc", 
    2
   ]
  }, 
  "134272168": {
   "__tuple__": true, 
   "items": [
    "Ky9igBC3Ee+GHuIK9o6KVc", 
    3
   ]
  }, 
  "201347723": {
   "__tuple__": true, 
   "items": [
    "Ky+woRC3Ee+tj+IK9o6KVV", 
    0
   ]
  }, 
  "201330383": {
   "__tuple__": true, 
   "items": [
    "Ky+woRC3Ee+tj+IK9o6KVV", 
    1
   ]
  }, 
  "201355418": {
   "__tuple__": true, 
   "items": [
    "Ky+woRC3Ee+tj+IK9o6KVV", 
    2
   ]
  }, 
  "201387323": {
   "__tuple__": true, 
   "items": [
    "Ky+woRC3Ee+tj+IK9o6KVV", 
    3
   ]
  }, 
  "201345641": {
   "__tuple__": true, 
   "items": [
    "Ky+woRC3Ee+tj+IK9o6KVV", 
    4
   ]
  }, 
  "201334672": {
   "__tuple__": true, 
   "items": [
    "KzAlzxC3Ee+nv+IK9o6KVd", 
    0
   ]
  }, 
  "201387287": {
   "__tuple__": true, 
   "items": [
    "KzAlzxC3Ee+nv+IK9o6KVd", 
    1
   ]
  }, 
  "201333315": {
   "__tuple__": true, 
   "items": [
    "KzAlzxC3Ee+nv+IK9o6KVd", 
    2
   ]
  }, 
  "201366158": {
   "__tuple__": true, 
   "items": [
    "KzAlzxC3Ee+nv+IK9o6KVd", 
    3
   ]
  }, 
  "201337467": {
   "__tuple__": true, 
   "items": [
    "KzAlzxC3Ee+nv+IK9o6KVd", 
    4
   ]
  }, 
  "201330767": {
   "__tuple__": true, 
   "items": [
    "KzAlzxC3Ee+nv+IK9o6KVd", 
    5
   ]
  }, 
  "201365691": {
   "__tuple__": true, 
   "items": [
    "KzAlzxC3Ee+nv+IK9o6KVd", 
    6
   ]
  }, 
  "201329173": {
   "__tuple__": true, 
   "items": [
    "KzAlzxC3Ee+nv+IK9o6KVd", 
    7
   ]
  }, 
  "201346518": {
   "__tuple__": true, 
   "items": [
    "KzAlzxC3Ee+nv+IK9o6KVd", 
    8
   ]
  }, 
  "201366103": {
   "__tuple__": true, 
   "items": [
    "KzEQMBC3Ee+eFuIK9o6KVY", 
    0
   ]
  }, 
  "201353758": {
   "__tuple__": true, 
   "items": [
    "KzEQMBC3Ee+eFuIK9o6KVY", 
    1
   ]
  }, 
  "201363050": {
   "__tuple__": true, 
   "items": [
    "KzEQMBC3Ee+eFuIK9o6KVY", 
    2
   ]
  }
 }
}