{
    "_custom_": true, 
    "_ref_": 134253585, 
    "affect_techs": {
        "__tuple__": true, 
        "items": []
    }, 
    "agility": 10.0, 
    "agility_grow": 1.0, 
    "alarm_range": 7.0, 
    "angle_tolerance": 1, 
    "armor_type": 20000, 
    "attack_interval": 1, 
    "attack_interval_grow": 0.0, 
    "attack_mag": 0.0, 
    "attack_mag_grow": 0.0, 
    "attack_phy": 50.0, 
    "attack_phy_grow": 3.45, 
    "attack_range": 10.0, 
    "attack_range_grow": 0.0, 
    "attack_speed": 100.0, 
    "attack_speed_grow": 0.0, 
    "attack_type": 10000, 
    "bar_show_name": 1, 
    "bar_show_scale": true, 
    "bar_slot_size": 7, 
    "base_color_mod": 1, 
    "base_tint_color": {
        "__tuple__": true, 
        "items": [
            255, 
            255, 
            255, 
            0.5
        ]
    }, 
    "billboard_height_offset": 1.0, 
    "billboard_name_font": "HKWeiBeiW7", 
    "billboard_scale_x": 1.0, 
    "billboard_scale_y": 1.0, 
    "blood_bar": 327681, 
    "blood_show_type": 0, 
    "body_size": 1, 
    "build_res_cost_list": {
        "__tuple__": true, 
        "items": []
    }, 
    "buy_res_list": {
        "__tuple__": true, 
        "items": []
    }, 
    "can_flee": true, 
    "cancel_alarm_range": 10.0, 
    "cc_jump_height": 0.0, 
    "cc_move_acc": 0.0, 
    "cc_move_acc_rate": 0.0, 
    "cc_run_speed": 0.0, 
    "cc_walk_speed": 0.0, 
    "cd_reduce": 0.0, 
    "cd_reduce_grow": 0.0, 
    "collision_box_turning_enable": false, 
    "collision_points": {
        "__tuple__": true, 
        "items": []
    }, 
    "common_ability_list": {
        "__tuple__": true, 
        "items": []
    }, 
    "common_atk": {
        "__tuple__": true, 
        "items": [
            134229574, 
            1
        ]
    }, 
    "common_atk_type": 2, 
    "counterattack_range": 0.0, 
    "critical_chance": 0.0, 
    "critical_chance_grow": 0.0, 
    "critical_dmg": 200.0, 
    "critical_dmg_grow": 0.0, 
    "default_behaviour_type": "caution", 
    "defense_mag": 34.0, 
    "defense_mag_grow": 0.0, 
    "defense_phy": 22.0, 
    "defense_phy_grow": 3.4, 
    "description": -811503998, 
    "destroy_after_die": true, 
    "die_anim": "die", 
    "disk_shadow_size": 10, 
    "dmg_reduction": 0.0, 
    "dmg_reduction_grow": 0.0, 
    "dodge_rate": 0.0, 
    "dodge_rate_grow": 0.0, 
    "drop_items_tuple": {
        "__tuple__": true, 
        "items": []
    }, 
    "dynamic_collision_r": 0.0, 
    "enemy_mini_map_icon": 100000, 
    "extra_dmg": 0.0, 
    "extra_dmg_grow": 0.0, 
    "force_show_on_mini_map": false, 
    "fresnel_color": [
        255, 
        0, 
        0, 
        1.0
    ], 
    "fresnel_emissive_color_strength": 0, 
    "fresnel_exp": 1, 
    "has_mp": true, 
    "heal_effect": 0.0, 
    "heal_effect_grow": 0.0, 
    "healing_effect": 0.0, 
    "healing_effect_grow": 0.0, 
    "height_offset": 0, 
    "hero_ability_list": {
        "__tuple__": true, 
        "items": [
            [
                134230180, 
                0
            ], 
            [
                134228550, 
                0
            ], 
            [
                134221939, 
                0
            ], 
            [
                134243430, 
                0
            ]
        ]
    }, 
    "hit_rate": 100.0, 
    "hit_rate_grow": 0.0, 
    "hp_max": 490.0, 
    "hp_max_grow": 80.0, 
    "hp_rec": 1.25, 
    "hp_rec_grow": 0.13, 
    "icon": 107006, 
    "idle_anim": "idle1", 
    "init_stock": 5, 
    "intelligence": 10.0, 
    "intelligence_grow": 1.0, 
    "is_apply_role_color": false, 
    "is_mini_map_show": true, 
    "is_open_Xray": false, 
    "is_open_disk_shadow": false, 
    "is_open_outline_pass": true, 
    "is_shop": false, 
    "is_x_offset": false, 
    "is_z_offset": false, 
    "keep_dead_body_time": 0.0, 
    "keep_target": true, 
    "key": 134253585, 
    "kv": {}, 
    "level": 1, 
    "main_attr": "strength", 
    "max_balance_angle": 0, 
    "max_stock": 5, 
    "mini_map_icon": 107006, 
    "mini_map_icon_scale": 0.7, 
    "model": 200806, 
    "model_height": 0.0, 
    "model_opacity": 1, 
    "move_channel": 0, 
    "move_limitation": 1, 
    "move_type": 40, 
    "mp_color": "Blue", 
    "mp_key": "MP", 
    "mp_max": 250.0, 
    "mp_max_grow": 35.0, 
    "mp_rec": 1.3, 
    "mp_rec_grow": 0.13, 
    "name": 1244779780, 
    "need_preview_billboard": true, 
    "ori_bits": 0, 
    "ori_speed": 3.0, 
    "ori_speed_grow": 0.0, 
    "passive_ability_list": {
        "__tuple__": true, 
        "items": [
            [
                134222628, 
                1
            ]
        ]
    }, 
    "pene_mag": 0.0, 
    "pene_mag_grow": 0.0, 
    "pene_mag_ratio": 0.0, 
    "pene_mag_ratio_grow": 0.0, 
    "pene_phy": 0.0, 
    "pene_phy_grow": 0.0, 
    "pene_phy_ratio": 0.0, 
    "pene_phy_ratio_grow": 0.0, 
    "physics_composite": "", 
    "pkg_slot_size": 0, 
    "precondition_list": {
        "__tuple__": true, 
        "items": []
    }, 
    "preview_billboard_health_value": 490.0, 
    "refresh_interval": 1.0, 
    "rescue_finish_return": false, 
    "rescue_seeker_distance": 3.0, 
    "rescue_seeker_interval": 5, 
    "rescue_seeker_type": 0, 
    "rescuer_type": 2, 
    "research_techs": {
        "__tuple__": true, 
        "items": []
    }, 
    "reward_exp": 0, 
    "reward_official_res_1": 0.0, 
    "role_color_scale": 1, 
    "rotate_speed": 15.0, 
    "sell_list": [], 
    "sell_res_list": {
        "__tuple__": true, 
        "items": []
    }, 
    "separate_enemy_icon": false, 
    "shop_camp_args": 3, 
    "shop_range": 10.0, 
    "shop_sell_type": 0, 
    "show_y3_extra_info": true, 
    "simple_common_atk": {
        "ability_animations": {
            "__tuple__": true, 
            "items": [
                "attack1"
            ]
        }, 
        "ability_bw_point": 0.5, 
        "ability_cast_point": 0.2, 
        "attack_trajectory": {
            "effect": 0, 
            "follow_scale": true, 
            "scale": 1.0, 
            "socket": "origin"
        }, 
        "cast_effect_list": {
            "__tuple__": true, 
            "items": []
        }, 
        "cast_sound": 0, 
        "critical_anim": "attack1", 
        "damage": {
            "__tuple__": true, 
            "items": [
                "lambda unit: Fix32(unit.ability_source.api_get_float_attr('attack_phy'))", 
                [
                    [
                        "ability_source", 
                        "ATTR_RESULT", 
                        "attack_phy"
                    ]
                ], 
                "lambda unit: Fix32(unit.ability_source.api_get_float_attr('attack_phy'))", 
                {
                    "unit.ability_source.ATTR_RESULT.attack_phy": {
                        "is_cm": false
                    }
                }, 
                [
                    [
                        "unit", 
                        "ability_source", 
                        "ATTR_RESULT", 
                        "attack_phy"
                    ]
                ]
            ]
        }, 
        "damage_type": 0, 
        "filter_condition_camp": 1, 
        "filter_condition_type": 7, 
        "hit_effect": {
            "effect": 0, 
            "follow_scale": true, 
            "scale": 1.0, 
            "socket": "origin"
        }, 
        "hit_sound": 0, 
        "order_play_anim": false, 
        "order_play_reset_time": 0.5, 
        "trajectory_radian": 1.0, 
        "trajectory_speed": 1000.0
    }, 
    "sound_event_list": {
        "__tuple__": true, 
        "items": [
            [
                "UNIT_DIE", 
                134268823, 
                11
            ], 
            [
                "REVIVE_UNIT", 
                134263415, 
                11
            ]
        ]
    }, 
    "special_idle_anim": "idle2", 
    "speed_ratio_in_turn": 0.6, 
    "standard_walk_rate": 36.0, 
    "start_rft": 1.0, 
    "state_init": "", 
    "state_list": [], 
    "strength": 10.0, 
    "strength_grow": 1.0, 
    "suffix": "", 
    "tags": {
        "__tuple__": true, 
        "items": [
            "\u8fdc\u7a0b\u7269\u7406", 
            "\u8fdc\u7a0b", 
            "\u72d9\u51fb\u5f62\u6001", 
            "\u540e\u671f", 
            "\u4e0b\u8def\u4e3b\u529b"
        ]
    }, 
    "type": 1, 
    "uid": "134253585", 
    "use_base_tint_color": false, 
    "use_fresnel": false, 
    "use_simple_mini_map_icon": false, 
    "use_virtual_light": false, 
    "vampire_mag": 0.0, 
    "vampire_mag_grow": 0.0, 
    "vampire_phy": 0.0, 
    "vampire_phy_grow": 0.0, 
    "view_type": 0, 
    "vision_night": 11.0, 
    "vision_night_grow": 0.0, 
    "vision_rng": 11.0, 
    "vision_rng_grow": 0.0, 
    "vision_sector_angle_day": 0, 
    "vision_sector_angle_day_grow": 0, 
    "vision_sector_angle_night": 0, 
    "vision_sector_angle_night_grow": 0, 
    "vision_sector_night": 0.0, 
    "vision_sector_night_grow": 0.0, 
    "vision_sector_rng": 0.0, 
    "vision_sector_rng_grow": 0.0, 
    "vision_true": 0.0, 
    "vision_true_grow": 0.0, 
    "walk_anim": "walk", 
    "width_offset": 0, 
    "y3_extra_info_show_type": 1
}